import maya.cmds as cmds 
lists = cmds.ls(selection = True)
print lists
n = len(lists)
print n
l = n - 1
print l
for l in range(0,100): 
    if l == 0: 
        listed = lists[0] + '.cv[0:100]'
        cmds.select(listed)
        cmds.rotate(0,0,'90deg', r = True)
    else:     
        #r=l-1
        #sectionvalstr = 'make' + lists[l] + '.sections' 
        #s = sectionvalstr  
        #attemtpting to have an exact range for the CVs - gives error 
        
        listed = lists[l] + '.cv[0:100]'    
        #print lists[r]
        #print listed
        cmds.select(listed)
        cmds.rotate(0,0,'90deg', r = True)
        l-=1
           

#listed = lists[0] + '.cv[0:7]'
#cmds.select(listed)
#cmds.rotate(0,0,'90deg', r = True)
#works, but gives a "list index out of range" ERROR